ws2812_lib.c:26:6:ws2812_setBrightness	16	static
ws2812_lib.c:33:9:ws2812_getBrightness	4	static
ws2812_lib.c:37:6:ws2812_setPixelColor	16	static
ws2812_lib.c:46:6:ws2812_setPixelColor32	16	static
ws2812_lib.c:53:10:ws2812_getPixelColor	16	static
ws2812_lib.c:60:6:ws2812_clear	16	static
ws2812_lib.c:65:6:ws2812_render	16	static
ws2812_lib.c:70:6:ws2812_init	8	static
ws2812_lib.c:81:10:ws2812_getDmaPtr	4	static
ws2812_lib.c:85:9:ws2812_getDmaSize	4	static
ws2812_lib.c:90:13:ws2812_color_to_dma	40	static
ws2812_lib.c:108:13:ws2812_to_dma	16	static
